…
``` r
month_df =
  tibble(
    month = 1:12,
    month_name = month.name
  )

precip_df =
  bind_rows(precip_2017, precip_2018)    # combine: add 2018 at the end of 2017
  
left_join(precip_df, month_df, by = "month")   # join all cols in month_df with precip_df, key is month var
```

    ## # A tibble: 24 x 4
    ##     year month total month_name
    ##    <dbl> <dbl> <dbl> <chr>     
    ##  1  2017     1  2.34 January   
    ##  2  2017     2  1.46 February  
    ##  3  2017     3  3.57 March     
    ##  4  2017     4  3.99 April     
    ##  5  2017     5  5.64 May       
    ##  6  2017     6  1.4  June      
    ##  7  2017     7  7.09 July      
    ##  8  2017     8  4.44 August    
    ##  9  2017     9  1.95 September 
    ## 10  2017    10  0    October   
    ## # … with 14 more rows
…
